Sentiment Analysis
…
3. an extended analysis using a new corpus,

4. at least one additional sentiment lexicon,

5. and an explanation of how the new results differ from the original results.

Step1

#install.packages("textdata")
library(tidytext)
library(textdata)

get_sentiments("afinn")

# A tibble: 2,477 × 2
   word       value
   <chr>      <dbl>
 1 abandon       -2
 2 abandoned     -2
 3 abandons      -2
 4 abducted      -2
 5 abduction     -2
 6 abductions    -2
 7 abhor         -3
 8 abhorred      -3
 9 abhorrent     -3
10 abhors        -3
# ℹ 2,467 more rows

get_sentiments("bing")

# A tibble: 6,786 × 2
   word        sentiment
   <chr>       <chr>    
 1 2-faces     negative 
 2 abnormal    negative 
 3 abolish     negative 
 4 abominable  negative 
 5 abominably  negative 
 6 abominate   negative 
 7 abomination negative 
 8 abort       negative 
 9 aborted     negative 
10 aborts      negative 
# ℹ 6,776 more rows

get_sentiments("nrc")

# A tibble: 13,872 × 2
   word        sentiment
   <chr>       <chr>    
 1 abacus      trust    
 2 abandon     fear     
 3 abandon     negative 
 4 abandon     sadness  
 5 abandoned   anger    
 6 abandoned   fear     
 7 abandoned   negative 
 8 abandoned   sadness  
 9 abandonment anger    
10 abandonment fear     
# ℹ 13,862 more rows
…
  unnest_tokens(word, text)

nrc_joy <- get_sentiments("nrc") |>
  filter(sentiment == "joy")

tidy_books |>
  filter(book == "Emma") |>
  inner_join(nrc_joy) |>
  count(word, sort = TRUE)

Joining with `by = join_by(word)`

# A tibble: 301 × 2
   word          n
   <chr>     <int>
 1 good        359
 2 friend      166
 3 hope        143
 4 happy       125
 5 love        117
 6 deal         92
 7 found        92
 8 present      89
 9 kind         82
10 happiness    76
# ℹ 291 more rows
…
pride_prejudice <- tidy_books |>
  filter(book == "Pride & Prejudice")
pride_prejudice

# A tibble: 122,204 × 4
   book              linenumber chapter word     
   <fct>                  <int>   <int> <chr>    
 1 Pride & Prejudice          1       0 pride    
 2 Pride & Prejudice          1       0 and      
 3 Pride & Prejudice          1       0 prejudice
 4 Pride & Prejudice          3       0 by       
 5 Pride & Prejudice          3       0 jane     
 6 Pride & Prejudice          3       0 austen   
 7 Pride & Prejudice          7       1 chapter  
 8 Pride & Prejudice          7       1 1        
 9 Pride & Prejudice         10       1 it       
10 Pride & Prejudice         10       1 is       
# ℹ 122,194 more rows
…
